{
    "apps": [
        {
            "name": "rabbitsstore.com",
            "script": "yarn",
            "args" : "serve -s build -l 5000",
            "interpreter": "/bin/bash",
            "env_production" : {
                "NODE_ENV" : "production"
            }
        }
    ]
  }